{
    "UserAgent": "aws-amplify/cli",
    "Version": "0.1.0",
    "IdentityManager": {
        "Default": {}
    },
    "CredentialsProvider": {
        "CognitoIdentity": {
            "Default": {
                "PoolId": "us-east-1:b3b51a8f-3ff7-4361-ad1e-70bec7aad7d6",
                "Region": "us-east-1"
            }
        }
    },
    "CognitoUserPool": {
        "Default": {
            "PoolId": "us-east-1_Emz4S6lu0",
            "AppClientId": "4dj15ofvcbh29t36lgpuhbbvou",
            "AppClientSecret": "1grmo3g94ntottat5tdaq3ue07dja6meaadfcksou1lbifguc5js",
            "Region": "us-east-1"
        }
    },
    "FacebookSignIn": {
        "AppId": "323897191527434",
        "Permissions": "public_profile"
    },
    "PinpointAnalytics": {
        "Default": {
            "AppId": "1965ce1c458c47d69914a53f889ee919",
            "Region": "us-east-1"
        }
    },
    "PinpointTargeting": {
        "Default": {
            "Region": "us-east-1"
        }
    },
    "S3TransferUtility": {
        "Default": {
            "Bucket": "archerypostmedia",
            "Region": "us-east-1"
        }
    },
    "AppSync": {
        "Default": {
            "ApiUrl": "https://3flgrreksrchpi2snphruggnqu.appsync-api.us-east-1.amazonaws.com/graphql",
            "Region": "us-east-1",
            "AuthMode": "AMAZON_COGNITO_USER_POOLS"
        }
    }
}