{
	"providers": {
		"awscloudformation": {
			"AuthRoleName": "archery-20181009222858-authRole",
			"UnauthRoleArn": "arn:aws:iam::640863683033:role/archery-20181009222858-unauthRole",
			"AuthRoleArn": "arn:aws:iam::640863683033:role/archery-20181009222858-authRole",
			"Region": "us-east-1",
			"DeploymentBucketName": "archery-20181009222858-deployment",
			"UnauthRoleName": "archery-20181009222858-unauthRole",
			"StackName": "archery-20181009222858",
			"StackId": "arn:aws:cloudformation:us-east-1:640863683033:stack/archery-20181009222858/3e520b10-cc34-11e8-84a9-50fae9882035"
		}
	},
	"auth": {
		"ArcheryApp": {
			"service": "Cognito",
			"providerPlugin": "awscloudformation",
			"providerMetadata": {
				"s3TemplateURL": "https://s3.amazonaws.com/archery-20181009222858-deployment/amplify-cfn-templates/auth/ArcheryApp-cloudformation-template.yml",
				"logicalId": "authArcheryApp"
			},
			"lastPushTimeStamp": "2019-03-24T06:01:48.965Z",
			"output": {
				"AppClientSecret": "1grmo3g94ntottat5tdaq3ue07dja6meaadfcksou1lbifguc5js",
				"UserPoolId": "us-east-1_Emz4S6lu0",
				"AppClientIDWeb": "d3o10mtjc60p20hlfj1sc7opb",
				"AppClientID": "4dj15ofvcbh29t36lgpuhbbvou",
				"IdentityPoolId": "us-east-1:b3b51a8f-3ff7-4361-ad1e-70bec7aad7d6",
				"IdentityPoolName": "ArcheryAppIdentityPool",
				"UserPoolName": "ArcheryAppUserPool",
				"FacebookWebClient": "323897191527434"
			},
			"lastPushDirHash": "6oWPT8Q2QUZm4XJqpMY8N1/Yoxw=",
			"[object Object]": {}
		}
	},
	"analytics": {
		"archery": {
			"service": "Pinpoint",
			"providerPlugin": "awscloudformation",
			"providerMetadata": {
				"s3TemplateURL": "https://s3.amazonaws.com/archery-20181009222858-deployment/amplify-cfn-templates/analytics/pinpoint-cloudformation-template.json",
				"logicalId": "analyticsarchery"
			},
			"lastPushTimeStamp": "2019-03-24T06:01:48.974Z",
			"output": {
				"appName": "archery",
				"Region": "us-east-1",
				"Id": "1965ce1c458c47d69914a53f889ee919"
			},
			"lastPushDirHash": "Q5egVCleFlbJgTgpzwVpb9eF30g="
		}
	},
	"notifications": {
		"archery": {
			"service": "Pinpoint",
			"output": {
				"Name": "archery",
				"Id": "1965ce1c458c47d69914a53f889ee919",
				"Region": "us-east-1",
				"APNS": {
					"ApplicationId": "1965ce1c458c47d69914a53f889ee919",
					"CreationDate": "2018-10-11T21:20:22.719Z",
					"DefaultAuthenticationMethod": "Certificate",
					"Enabled": true,
					"HasCredential": true,
					"HasTokenKey": false,
					"Id": "apns",
					"IsArchived": false,
					"LastModifiedDate": "2018-12-18T23:16:20.439Z",
					"Platform": "APNS",
					"Version": 2
				}
			}
		}
	},
	"storage": {
		"UserPostMedia": {
			"service": "S3",
			"providerPlugin": "awscloudformation",
			"providerMetadata": {
				"s3TemplateURL": "https://s3.amazonaws.com/archery-20181009222858-deployment/amplify-cfn-templates/storage/s3-cloudformation-template.json",
				"logicalId": "storageUserPostMedia"
			},
			"lastPushTimeStamp": "2019-03-24T06:01:48.975Z",
			"output": {
				"BucketName": "archerypostmedia",
				"Region": "us-east-1"
			},
			"lastPushDirHash": "2jHIPG9RLLvEGIkFJDLfhCo3V7w="
		}
	},
	"api": {
		"ArcheryGraphV0": {
			"service": "AppSync",
			"providerPlugin": "awscloudformation",
			"output": {
				"securityType": "AMAZON_COGNITO_USER_POOLS",
				"GraphQLAPIIdOutput": "plooqv54gbb2jgutjow7m6ilja",
				"GraphQLAPIEndpointOutput": "https://3flgrreksrchpi2snphruggnqu.appsync-api.us-east-1.amazonaws.com/graphql",
				"GraphQLAPIKeyOutput": "da2-5ao3pi3o3jhqzo2qjx5txqrx44",
				"AuthCognitoUserPoolIdOutput": "us-east-1_Emz4S6lu0",
				"AuthCognitoUserPoolNativeClientId": "See UserPool: us-east-1_Emz4S6lu0",
				"AuthCognitoUserPoolJSClientId": "See UserPool: us-east-1_Emz4S6lu0"
			},
			"providerMetadata": {
				"s3TemplateURL": "https://s3.amazonaws.com/archery-20181009222858-deployment/amplify-cfn-templates/api/cloudformation-template.json",
				"logicalId": "apiArcheryGraphV0"
			},
			"lastPushTimeStamp": "2019-03-24T06:01:52.004Z",
			"lastPushDirHash": "EVUS05WWZQQaVX19rQZ4NwePE4o="
		}
	},
	"hosting": {
		"S3AndCloudFront": {
			"service": "S3AndCloudFront",
			"providerPlugin": "awscloudformation",
			"providerMetadata": {
				"s3TemplateURL": "https://s3.amazonaws.com/archery-20181009222858-deployment/amplify-cfn-templates/hosting/template.json",
				"logicalId": "hostingS3AndCloudFront"
			},
			"lastPushTimeStamp": "2019-03-24T06:01:48.976Z",
			"output": {
				"CloudFrontSecureURL": "https://d33p3r7bnrqfid.cloudfront.net",
				"S3BucketSecureURL": "https://archery-20181020135908--hostingbucket.s3.amazonaws.com",
				"WebsiteURL": "http://archery-20181020135908--hostingbucket.s3-website-us-east-1.amazonaws.com",
				"CloudFrontDistributionID": "E13UOBLVEJ3L20",
				"Region": "us-east-1",
				"HostingBucketName": "archery-20181020135908--hostingbucket",
				"CloudFrontDomainName": "d33p3r7bnrqfid.cloudfront.net"
			},
			"lastPushDirHash": "LxqfeqN3eJdiBPktD3Ag3XpdqGA="
		}
	}
}