{
    "identityPoolName": "ArcheryAppIdentityPool",
    "allowUnauthenticatedIdentities": true,
    "thirdPartyAuth": true,
    "lambdaLogPolicy": "ArcheryApp_lambda_log_policy",
    "openIdLambdaRoleName": "ArcheryApp_openid_lambda_role",
    "openIdRolePolicy": "ArcheryApp_openid_pass_role_policy",
    "openIdLambdaIAMPolicy": "ArcheryApp_openid_lambda_iam_policy",
    "openIdLogPolicy": "ArcheryApp_openid_lambda_log_policy",
    "userPoolName": "ArcheryAppUserPool",
    "autoVerifiedAttributes": [
        "email"
    ],
    "mfaConfiguration": "OFF",
    "mfaTypes": [
        "SMS Text Message"
    ],
    "roleName": "ArcheryApp_sns-role",
    "roleExternalId": "ArcheryApp_role_external_id",
    "policyName": "ArcheryApp-sns-policy",
    "smsAuthenticationMessage": "Your authentication code is {####}",
    "smsVerificationMessage": "Your verification code is {####}",
    "emailVerificationSubject": "Your verification code",
    "emailVerificationMessage": "Your verification code is {####}",
    "defaultPasswordPolicy": true,
    "passwordPolicyMinLength": "8",
    "passwordPolicyCharacters": [
        "Requires Lowercase",
        "Requires Uppercase",
        "Requires Numbers"
    ],
    "requiredAttributes": [
        "email"
    ],
    "userpoolClientName": "ArcheryApp_app_client",
    "userpoolClientGenerateSecret": true,
    "userpoolClientRefreshTokenValidity": 30,
    "userpoolClientReadAttributes": [
        "email"
    ],
    "mfaLambdaRole": "ArcheryApp_totp_lambda_role",
    "mfaLambdaLogPolicy": "ArcheryApp_totp_lambda_log_policy",
    "mfaPassRolePolicy": "ArcheryApp_totp_pass_role_policy",
    "mfaLambdaIAMPolicy": "ArcheryApp_totp_lambda_iam_policy",
    "userpoolClientLambdaRole": "ArcheryApp_userpoolclient_lambda_role",
    "userpoolClientLogPolicy": "ArcheryApp_userpoolclient_lambda_log_policy",
    "userpoolClientLambdaPolicy": "ArcheryApp_userpoolclient_lambda_iam_policy",
    "userpoolClientSetAttributes": true,
    "useDefault": "manual",
    "authSelections": "identityPoolAndUserPool",
    "resourceName": "ArcheryApp",
    "unAuthRoleName": "archery-20181009222858-unauthRole",
    "authRoleName": "archery-20181009222858-authRole",
    "unAuthRoleArn": "arn:aws:iam::640863683033:role/archery-20181009222858-unauthRole",
    "authRoleArn": "arn:aws:iam::640863683033:role/archery-20181009222858-authRole",
    "authProviders": [
        "graph.facebook.com"
    ],
    "facebookAppId": "323897191527434",
    "userpoolClientWriteAttributes": [
        "profile",
        "email"
    ],
    "selectedParties": "{\"graph.facebook.com\":\"323897191527434\"}"
}