{
    "AppSyncApiName": "ArcheryGraphV0",
    "AuthCognitoUserPoolId": {
        "Fn::GetAtt": [
            "authArcheryApp",
            "Outputs.UserPoolId"
        ]
    },
    "schemaGraphql": "s3://archery-20181009222858-deployment/amplify-appsync-files/schema.graphql.1553407184041",
    "ResolverBucket": "archery-20181009222858-deployment",
    "ResolverRootKey": "amplify-appsync-files",
    "DeploymentTimestamp": "1553407184041"
}